{
    "version": "0.2",
    "language": "en",
    "words": [
        "fro",
        "programm",
        "unter",
        "klick",
        "precache",
        "pluggable",
        "themeable",
        "stylable",
        "SMUI",
        "renderHtml",
        "liveurl",
        "onlinetext",
        "offlinetext",
        "offlinehtml",
        "activeonly",
        "hostid",
        "trackservice",
        "spielarten",
        "unterschied",
        "entdeckung",
        "vielen",
        "gute",
        "interesse",
        "durchs",
        "dickicht",
        "iife",
        "behaviour",
        "sveltejs",
        "amplitudejs",
        "Lasinger",
        "Pictogrammers",
        "timeslot"
    ],
    "flagWords": [
        "hte"
    ],
    "ignorePaths": [
        "node_modules/**",
        "public/build/**",
        "dist/**"
    ]
}